{
  "localeName": {
    "message": "english",
    "description": "Language name"
  },
  "localeImage": {
    "message": "/images/flagsvpn/gb.png",
    "description": "Language image"
  },
  "extensionDescription": {
    "message": "Proxy web extension",
    "description": "Description of the extension."
  },
  "switchOnLabel": {
    "message": "On",
    "description": "label of enabled switch"
  },
  "switchOffLabel": {
    "message": "Off",
    "description": "label of disabled switch"
  },
  "backLabel": {
    "message": "Back",
    "description": "Link label of previous page"
  },
  "retryLabel": {
    "message": "Retry",
    "description": "Button label for repeat actions"
  },
  "logoutLabel": {
    "message": "Log out",
    "description": "Button label for logout"
  },
  "defaultPageTitle": {
    "message": "WhoX VPN",
    "description": "Default page title"
  },
  "settingsPageTitle": {
    "message": "Settings",
    "description": "Settings page title"
  },
  "locationsPageTitle": {
    "message": "Virtual location",
    "description": "Locations page title"
  },
  "locationsSearchPlaceholder": {
    "message": "Search for location...",
    "description": "Locations search placeholder"
  },
  "locationsItemTrial": {
    "message": "Free",
    "description": "Trial label of location list item"
  },
  "locationsItemPremium": {
    "message": "Premium",
    "description": "Premium label of location list item"
  },
  "locationsItemConnected": {
    "message": "Connected",
    "description": "Connected label of location list item"
  },
  "locationsItemConnect": {
    "message": "Click to connect",
    "description": "Connect label of location list item"
  },
  "locationSelectLink": {
    "message": "Just click here to choose your new virtual location!",
    "description": "Link to select first proxy"
  },
  "locationChangeLink": {
    "message": "Click to change",
    "description": "Link to change selected proxy"
  },
  "premiumStatus": {
    "message": "You are a Premium user, $1",
    "description": "Premium subscription status"
  },
  "premiumStatusShort": {
    "message": "Premium: $1",
    "description": "Premium subscription status"
  },
  "premiumButtonLabel": {
    "message": "Go Premium!",
    "description": "Button label of opening activation page "
  },
  "premiumLinkLabel": {
    "message": "Go premium",
    "description": "Link to activation page"
  },
  "registrationButtonLabel": {
    "message": "Click here to Get passcode!",
    "description": "Link to premium registration"
  },
  "helpLinkLabel": {
    "message": "Help",
    "description": "Link to help center"
  },
  "activationCodeTitle": {
    "message": "You want to go Premium?",
    "description": "Title in activation code block"
  },
  "activationCodePlaceholder": {
    "message": "Enter your passcode...",
    "description": "Activation code placeholder"
  },
  "activationDescriptionTitle": {
    "message": "Where to get a passcode?",
    "description": "Description title to activation"
  },
  "activationDescriptionText": {
    "message": "To activate, go to the premium subscription purchase page. Type the code in the form above",
    "description": "Description text to activation"
  },
  "connectionErrorTitle": {
    "message": "Connection error",
    "description": "Connection error title"
  },
  "connectionErrorText": {
      "message": "Something wrong with connection. Go back or try again",
      "description": "Connection error text"
  },
  "fetchProxiesErrorTitle": {
    "message": "Can`t get servers list",
    "description": "Proxies fetch error title"
  },
  "fetchProxiesErrorText": {
    "message": "",
    "description": "Proxies fetch error text"
  },
  "timerDescriptionTitle": {
    "message": "Wait a minute",
    "description": "Description title to registration delay timer"
  },
  "timerDescriptionText": {
    "message": "The regestration of your account is in progress.",
    "description": "Description text to registration delay timer"
  },
  "languageOptionLabel": {
    "message": "Language",
    "description": "Option label of current language"
  },
  "webRtcOptionLabel": {
    "message": "Prevent WebRTC leak",
    "description": "Option label of prevent WebRTC leak"
  },
  "disableFlashOptionLabel": {
    "message": "Disable Flash",
    "description": "Option label of disable Flash"
  },
  "adjustTimezoneOptionLabel": {
    "message": "Adjust IP time zone",
    "description": "Option label of adjust IP time zone"
  },
  "daysLeftOne": {
    "message": "$1 day",
    "description": "Days left for one item"
  },
  "daysLeftOther": {
    "message": "$1 days",
    "description": "Days left for other number of items"
  },
  "pluralPostfixMap": {
    "message": "[[\"One\", \"n == 1\"], [\"Other\"]]",
    "description": "Plural form condition"
  },
  "registrationTitle": {
    "message": "Start your free account",
    "description": "title for registration page"
  },
  "loginTitle": {
    "message": "Login into your account",
    "description": "title for login page"
  },
  "inputEmail": {
    "message": "Enter your e-mail",
    "description": "placeholder for input start page"
  },
  "inputCode": {
    "message": "Enter your code",
    "description": "placeholder for input start page"
  },
  "extendTranslate": {
    "message": "Extend",
    "description": "just translate"
  },
  "upgradeTranslate": {
    "message": "Upgrade",
    "description": "just translate"
  },
  "upgradeToPremium": {
    "message": "Upgrade to premium",
    "description": "text for ImproveAccountBanner"
  },
  "noneTexts": {
    "message": "",
    "description": "none text"
  },
  "registrationDescription": {
    "message": "Try WhoX VPN. It's free!",
    "description": "text for description in registration page"
  },
  "registrationButton": {
    "message": "Sign up",
    "description": "button in registration page"
  },
  "registrationHint": {
    "message": "Already have an account?",
    "description": "hint text to go to the login page"
  },
  "registrationHintLink": {
    "message": "Log in",
    "description": "text for the hint link to go to the login page"
  },
  "loginButton": {
    "message": "Log in",
    "description": "button in login page"
  },
  "loginForgotCode": {
    "message": "Forgot your code?",
    "description": "hint text to go to the whoer forgot key"
  },
  "loginForgotCodeLink": {
    "message": "Recover access",
    "description": "hint text to go to the whoer forgot key link"
  },
  "loginHint": {
    "message": "Don't have an account?",
    "description": "hint text to go to the registration page"
  },
  "loginHintLink": {
    "message": "Sign up",
    "description": "text for the hint link to go to the registration page"
  },
  "subscriotionTitle": {
    "message": "Want to become Premium?",
    "description": "title subscription page"
  },
  "subscriotionDescription": {
    "message": "To activate, go to the buy page of premium account. Purchase the access. Enter the received code in the form above.",
    "description": "description subscription page"
  },
  "subscriotionListSecure": {
    "message": "Secure VPN servers worldwide",
    "description": "list subscription page"
  },
  "subscriotionListSpeed": {
    "message": "Fast speeds & unlimited bandwidth",
    "description": "list subscription page"
  },
  "subscriotionListSupport": {
    "message": "Friendly support",
    "description": "list subscription page"
  },
  "subscriotionListMoney": {
    "message": "30-day money-back guarantee",
    "description": "list subscription page"
  },
  "subscriotionButton": {
    "message": "GET ACCESS CODE",
    "description": "button subscription page"
  },
  "competitorTitle": {
    "message": "Please disable the proxy service listed below to use WhoX VPN extension",
    "description": "title competitor page"
  },
  "competitorButton": {
    "message": "disable",
    "description": "button competitor page"
  },
  "registrationNotificationTitle": {
    "message": "Account created successfully",
    "description": "title registrationNotification page"
  },
  "registrationNotificationDescription": {
    "message": "Check your email, here you can find authentication key.",
    "description": "description registrationNotification page"
  },
  "registrationNotificationButton": {
    "message": "Log in",
    "description": "button registrationNotification page"
  },
  "proxiesTrialBanner": {
    "message": "Unlock more servers with Premium",
    "description": "text for proxiesTrialBanner"
  },
  "proxiesListFavourites": {
    "message": "Favourites",
    "description": "favourites list"
  },
  "proxiesListLocation": {
    "message": "Location list",
    "description": "location list"
  },
  "proxiesListPremium": {
    "message": "Premium locations",
    "description": "premium list"
  },
  "proxyLocation": {
    "message": "Location",
    "description": "premium list"
  },
  "proxyInstructions": {
    "message": "Guide",
    "description": "proxy-instructions-open"
  },
  "proxyFreeAccount": {
    "message": "Free account",
    "description": "proxy free account"
  },
  "proxyPremiumAccount": {
    "message": "Premium account",
    "description": "proxy premium account"
  },
  "proxySpeedLimited": {
    "message": "Speed connection is limited",
    "description": "proxy speed limit"
  },
  "proxyLocationHidden": {
    "message": "Your location is hidden",
    "description": "proxy location hidden"
  },
  "optionExtendSubscription": {
    "message": "Extend my subscription",
    "description": "proxy location hidden"
  },
  "optionGetPremium": {
    "message": "Get Premium",
    "description": "proxy location hidden"
  },
  "errorMessageEmpty": {
    "message": "The field can't be empty",
    "description": "text error for empty field"
  },
  "subscriptionExpiredTitle": {
    "message": "Subscription expired",
    "description": "title subscription page"
  },
  "subscriptionExpiredDescription": {
    "message": "You need renew your subscription to use proxy extension",
    "description": "description subscription page"
  },
  "subscriptionExpiredButton": {
    "message": "Renew subscription",
    "description": "button subscription page"
  },
  "yourIp": {
    "message": "Your IP",
    "description": "translate your ip"
  },
  "webrtcLink": {
    "message": "how-to-disable-webrtc-in-various-browsers/",
    "description": "link to article webrtc in blog"
  },
  "buyTranslate": {
      "message": "Buy",
      "description": ""
  },
  "webRtcLeak": {
      "message": "WebRTC leak",
      "description": ""
  },
  "locationsItemFree": {
      "message": "Trial",
      "description": ""
  },
  "nothingFound": {
      "message": "Nothing found...",
      "description": ""
  },
  "subscriptionLowTimeTitle": {
    "message": "You have $1 days\nof the tariff left",
    "description": "title subscription low time page"
  },
  "subscriptionLowTimeDescription": {
    "message": "Extend account with a discount of 15%",
    "description": "description subscription low time page"
  }
}