<svg width="30" height="30" viewBox="0 0 30 30" fill="none" xmlns="http://www.w3.org/2000/svg">
<rect x="0.5" y="0.5" width="29" height="29" rx="4.5" stroke="#EEEEEE"/>
<path fill-rule="evenodd" clip-rule="evenodd" d="M10.8105 15.75L15.5302 20.4697L14.4695 21.5303L7.93921 15L14.4695 8.46967L15.5302 9.53033L10.8105 14.25H21.7499V15.75H10.8105Z" fill="#112E4E"/>
</svg>
