<svg width="23" height="23" viewBox="0 0 23 23" fill="none" xmlns="http://www.w3.org/2000/svg">
<path d="M4.10714 17.2983V14.6442C4.10714 13.7636 4.82104 13.0497 5.70168 13.0497C6.58232 13.0497 7.29622 13.7636 7.29622 14.6442V17.2983C7.29622 18.179 6.58232 18.8929 5.70168 18.8929C4.82104 18.8929 4.10714 18.179 4.10714 17.2983ZM4.10714 15.961V11.8261C3.12618 12.3823 2.46429 13.436 2.46429 14.6442V17.2983C2.46429 19.0863 3.91372 20.5357 5.70168 20.5357C7.48965 20.5357 8.93908 19.0863 8.93908 17.2983V14.6442C8.93908 12.8563 7.48965 11.4068 5.70168 11.4068C5.12196 11.4068 4.57782 11.5592 4.10714 11.8261V11.5C4.10714 7.41704 7.41704 4.10714 11.5 4.10714C15.583 4.10714 18.8929 7.41704 18.8929 11.5V11.8261C18.4222 11.5592 17.878 11.4068 17.2983 11.4068C15.5104 11.4068 14.0609 12.8563 14.0609 14.6442V17.2983C14.0609 19.0863 15.5104 20.5357 17.2983 20.5357C19.0863 20.5357 20.5357 19.0863 20.5357 17.2983V14.6442C20.5357 13.436 19.8738 12.3823 18.8929 11.8261V15.8512C18.8929 16.3048 19.2606 16.6726 19.7143 16.6726C20.1679 16.6726 20.5357 16.3048 20.5357 15.8512V11.5C20.5357 6.50971 16.4903 2.46429 11.5 2.46429C6.50971 2.46429 2.46429 6.50971 2.46429 11.5V15.961C2.46429 16.4147 2.83205 16.7825 3.28572 16.7825C3.73938 16.7825 4.10714 16.4147 4.10714 15.961ZM18.8929 14.6442V17.2983C18.8929 18.179 18.179 18.8929 17.2983 18.8929C16.4177 18.8929 15.7038 18.179 15.7038 17.2983V14.6442C15.7038 13.7636 16.4177 13.0497 17.2983 13.0497C18.179 13.0497 18.8929 13.7636 18.8929 14.6442Z" fill="#3F8AE0"/>
</svg>
