<svg width="70" height="70" viewBox="0 0 70 70" fill="none" xmlns="http://www.w3.org/2000/svg">
<circle cx="35" cy="35" r="35" fill="#4687FF"/>
<g clip-path="url(#clip0)">
<path d="M47.3695 18H21.6305C18.5256 18 16 20.5256 16 23.6305V41.3261C16 44.4309 18.5256 46.9565 21.6305 46.9565H38.9931L46.8017 54.7651C46.9546 54.918 47.1604 55 47.3696 55C47.4726 55 47.5787 54.9807 47.6769 54.9388C47.9777 54.8149 48.174 54.5206 48.174 54.1956V46.8986C50.8991 46.5077 53.0001 44.1574 53.0001 41.326V23.6305C53 20.5256 50.4743 18 47.3695 18ZM34.5 42.1304C33.1695 42.1304 32.0869 41.0478 32.0869 39.7174C32.0869 38.387 33.1695 37.3043 34.5 37.3043C35.8304 37.3043 36.913 38.387 36.913 39.7174C36.913 41.0478 35.8304 42.1304 34.5 42.1304ZM37.711 25.4129L37.0176 33.363C36.9259 34.6645 35.8175 35.6956 34.5 35.6956C33.168 35.6956 32.0612 34.6644 31.9695 33.3485L31.2906 25.4225C31.2424 24.7469 31.474 24.0841 31.9277 23.5967C32.3846 23.106 33.028 22.8261 33.6957 22.8261H35.3043C35.9719 22.8261 36.6154 23.106 37.0723 23.5967C37.5259 24.0857 37.7592 24.7469 37.711 25.4129Z" fill="white"/>
</g>
<defs>
<clipPath id="clip0">
<rect width="37" height="37" fill="white" transform="translate(16 18)"/>
</clipPath>
</defs>
</svg>
